package com.cr.classes
 
 
rule "Channel Name"
    when
    	$d:Database()
		$s:Show($d.getSetup_input(0)==true && name.toLowerCase()==$d.getInput_channel().toLowerCase())
    then
    	$d.ClassificationInc($s.getId(), Database.WEIGHT_CHANNLE_NAME);
        System.out.println("ID: " + $s.getId()+" Show: "+ $s.getTitle() + " Channel: " +$s.getName());
end

rule "Show Title"
    when
    	$d:Database()
		$s:Show($d.getSetup_input(1)==true && title.toLowerCase()==$d.getInput_title().toLowerCase())
    then
    	$d.ClassificationInc($s.getId(), Database.WEIGHT_TITLE);
        System.out.println("Programa incrementado 1"+ $s.getTitle());
end

rule "Date Start"
    when
    	$d:Database()

		$s:Show($d.getSetup_input(3)==true && $d.checkStartDate($s.getDateStart())==true)
    then
    	$d.ClassificationInc($s.getId(), Database.WEIGHT_DATE_START);
end



rule "Date End"
    when
    	$d:Database()

		$s:Show($d.getSetup_input(4)==true && $d.checkEndDate($s.getDateEnd())==true)
    then
    	$d.ClassificationInc($s.getId(), Database.WEIGHT_DATE_END);
end


rule "Duration in Minutes"
    when
    	$d:Database()
        
		$s:Show($s.DurationOnScale($d.getInput_duration_min())==true && $d.getSetup_input(2)==true)
    then
    	$d.ClassificationInc($s.getId(), Database.WEIGHT_DURATION);
        System.out.println("Programa incrementado 5"+ $s.getTitle());

end


rule "Genre Type"
salience 100
	when
    	$d:Database()
    	$s:Show($d.getSetup_input(6)==true && genre.toLowerCase()==$d.getInput_genre().toLowerCase())
	then
    	$d.ClassificationInc($s.getId(), Database.WEIGHT_GENRE);
    	System.out.println("Genre");
end

rule "Serie Season Episode"

	when 
		$d:Database();
		$s:Show($d.getSetup_input(7)==true && $d.getSetup_input(8)==true && title.toLowerCase() == $d.getInput_title().toLowerCase())
	then
		System.out.println("Encontrou");
    	$d.ClassificationInc($s.getId(), Database.WEIGHT_SEASON+Database.WEIGHT_EPISODE);
end

rule "Keyword"
	when
    	$d:Database()
    	$s:Show($d.getSetup_input(5)==true && $d.checkKeyWord($s.getDescription(), $s.getId())==true)
	then
		$d.ClassificationInc($s.getId(), $d.getFoundKeyWords($s.getId())*Database.WEIGHT_KEYWORD);
        System.out.println("Keyword!!");
 
end


